Estimation of Water Distributed based on Geography for the None of None to None:TRYA01-KODANGIPATTI,,,,,,,,,,,
Sl.no.,Date,Pump ON Time,Pump ON Water Level in Mtr,Pump ON Water Volume in Mtr3,Pump OFF Time,Pump OFF Water Level in Mtr,Pump OFF  Water Volume in Mtr3,Pump Running Time Hrs,Running Pump,Water Volume Discharged Based on Capcity,Mode
1,31/08/21,11:50:16,3.40000,11995.55000,11:56:03,1.20000,4233.72000,05:39:07,Pump1,4234,Auto
2,31/08/21,12:24:47,3.90000,13759.60000,12:31:02,1.45000,5115.75000,05:40:15,Pump1,5116,Auto
3,07/09/21,17:35:50,0.61000,2152.14000,17:38:56,0.61000,2152.14000,05:35:06,Pump1,3100,Auto
4,07/09/21,18:43:08,0.13000,458.65000,23:59:59,None,None,19:50:51,Pump1,316850,Auto
5,09/09/21,00:00:00,0.61000,2152.14000,12:50:56,0.61000,2152.14000,16:14:16,Pump1,770933,Auto
6,09/09/21,13:12:48,1.00000,3528.10000,13:59:36,0.61000,2152.14000,06:47:28,Pump1,234000,Auto
7,16/09/21,17:12:20,2.20000,7761.83000,17:12:39,1.20000,4233.72000,05:30:19,Pump1,1583,Auto
8,16/09/21,17:13:41,2.45000,8643.85000,17:13:59,1.45000,5115.75000,05:30:18,Pump1,1500,Auto
9,16/09/21,17:16:57,0.61000,2152.14000,17:16:59,0.61000,2152.14000,05:30:02,Pump1,167,Auto
10,16/09/21,17:17:12,1.00000,3528.10000,17:44:28,0.61000,2152.14000,06:15:16,Pump1,136333,Auto
11,16/09/21,17:45:16,2.20000,7761.83000,17:45:17,1.20000,4233.72000,05:30:01,Pump1,83,Auto
12,16/09/21,17:45:38,2.45000,8643.85000,17:45:51,1.45000,5115.75000,05:30:13,Pump1,1083,Auto
13,16/09/21,17:48:32,0.61000,2152.14000,17:48:33,0.61000,2152.14000,05:30:01,Pump1,83,Auto
14,16/09/21,17:48:34,1.00000,3528.10000,17:52:11,0.61000,2152.14000,05:35:37,Pump1,18083,Auto
15,16/09/21,17:52:14,1.00000,3528.10000,17:54:22,0.61000,2152.14000,05:33:28,Pump1,10667,Auto
16,16/09/21,17:54:22,1.00000,3528.10000,17:55:13,0.61000,2152.14000,05:30:51,Pump1,4250,Auto
17,16/09/21,17:54:22,0.61000,2152.14000,17:58:24,0.61000,2152.14000,05:36:42,Pump1,20167,Auto
18,16/09/21,17:58:24,1.00000,3528.10000,18:01:21,0.61000,2152.14000,05:34:17,Pump1,14750,Auto
19,16/09/21,18:01:23,1.00000,3528.10000,18:02:10,0.61000,2152.14000,05:30:47,Pump1,3917,Auto
20,16/09/21,18:02:11,1.00000,3528.10000,18:02:56,0.61000,2152.14000,05:30:45,Pump1,3750,Auto
21,16/09/21,18:02:11,0.61000,2152.14000,18:02:36,0.61000,2152.14000,05:30:25,Pump1,2083,Auto
22,16/09/21,18:02:59,0.61000,2152.14000,18:03:50,0.61000,2152.14000,05:30:51,Pump1,4250,Auto
23,16/09/21,18:03:51,1.00000,3528.10000,18:05:19,0.61000,2152.14000,05:32:08,Pump1,7333,Auto
24,16/09/21,18:03:51,0.61000,2152.14000,18:04:29,0.61000,2152.14000,05:30:38,Pump1,3167,Auto
25,16/09/21,18:05:21,1.00000,3528.10000,18:06:08,0.61000,2152.14000,05:30:47,Pump1,3917,Auto
26,16/09/21,18:06:09,1.00000,3528.10000,23:59:59,None,None,20:52:30,Pump1,1769167,Auto
27,17/09/21,00:00:00,1.20000,4233.72000,11:23:07,1.20000,4233.72000,12:41:47,Pump1,3415583,Auto
28,17/09/21,00:00:00,2.20000,7761.83000,11:23:07,2.20000,7761.83000,12:41:47,Pump1,3415583,Auto
29,17/09/21,11:23:07,2.20000,7761.83000,11:23:08,1.20000,4233.72000,05:30:01,Pump1,83,Auto
30,17/09/21,11:23:27,2.45000,8643.85000,11:23:32,1.45000,5115.75000,05:30:05,Pump1,417,Auto
31,17/09/21,11:26:01,2.20000,7761.83000,11:26:04,1.20000,4233.72000,05:30:03,Pump1,250,Auto
32,17/09/21,11:26:10,2.45000,8643.85000,11:26:11,1.45000,5115.75000,05:30:01,Pump1,83,Auto
33,17/09/21,11:26:48,2.20000,7761.83000,11:26:49,1.20000,4233.72000,05:30:01,Pump1,83,Auto
34,17/09/21,11:26:55,2.45000,8643.85000,11:26:56,1.45000,5115.75000,05:30:01,Pump1,83,Auto
35,17/09/21,11:27:22,2.20000,7761.83000,11:27:23,1.20000,4233.72000,05:30:01,Pump1,83,Auto
36,17/09/21,11:27:28,2.45000,8643.85000,11:27:29,1.45000,5115.75000,05:30:01,Pump1,83,Auto
37,17/09/21,11:27:49,2.20000,7761.83000,11:27:50,1.20000,4233.72000,05:30:01,Pump1,83,Auto
38,17/09/21,11:27:52,2.45000,8643.85000,11:27:53,1.45000,5115.75000,05:30:01,Pump1,83,Auto
39,17/09/21,11:30:52,2.20000,7761.83000,,None,None,,Pump1,0,Auto
,,,,,,,,,,,
Total Volume of Water Supplied for the None in Mtr3=10173063.0,,,,,,,,,,,
